{
  "kind": "collectionType",
  "collectionName": "tasks",
  "info": {
    "name": "Task",
    "description": ""
  },
  "options": {
    "increments": true,
    "timestamps": true,
    "draftAndPublish": false
  },
  "pluginOptions": {},
  "attributes": {
    "title": {
      "type": "string"
    },
    "description": {
      "type": "richtext"
    },
    "parentTask": {
      "model": "task",
      "via": "tasks"
    },
    "tasks": {
      "collection": "task",
      "via": "parentTask"
    },
    "iterations": {
      "via": "tasks",
      "collection": "iteration"
    },
    "project": {
      "via": "tasks",
      "model": "project"
    },
    "task_status": {
      "via": "task",
      "model": "task-status"
    },
    "custom": {
      "type": "richtext"
    }
  }
}
