{
  "kind": "collectionType",
  "collectionName": "projects",
  "info": {
    "name": "Project",
    "description": ""
  },
  "options": {
    "increments": true,
    "timestamps": true,
    "draftAndPublish": false
  },
  "pluginOptions": {},
  "attributes": {
    "title": {
      "type": "string"
    },
    "description": {
      "type": "richtext"
    },
    "iterations": {
      "via": "projects",
      "collection": "iteration"
    },
    "tasks": {
      "via": "project",
      "collection": "task"
    }
  }
}
